[{
	"cust_id": "12496",
	"fname": " Andrei",
	"lname": " Ortiz",
	"username": "a7x",
	"password": "qwerty",
	"age": "21",
	"email": "miguel.hernandez@seer-technologies.com",
	"amt_credits": 1510.25,
	"bill_statement": {
		"total_amount_due": 3000,
		"due_date": "Thu, 26 Oct 2017 07:09:11 GMT",
		"latest_payment_date": "Thu, 26 Oct 2017 07:09:11 GMT",
		"orig_amt_loan": 30000,
		"total_paid": 15000,
		"monthly": 3000,
		"remaining_bal": 15000,
		"amt_past_due": 0
	}
}, {
	"cust_id": "12497",
	"fname": "Jan",
	"lname": "Ortiz",
	"username": "a7x",
	"password": "qwerty",
	"age": "21",
	"email": "jan.ortiz@test.com",
	"amt_credits": 3000,
	"bill_statement": {
		"total_amount_due": 3000,
		"due_date": "Thu, 26 Oct 2017 07:09:11 GMT",
		"latest_payment_date": "Thu, 26 Oct 2017 07:09:11 GMT",
		"orig_amt_loan": 30000,
		"total_paid": 15000,
		"monthly": 3000,
		"remaining_bal": 15000,
		"amt_past_due": 0
	}
}]